[
  {
    "id": 1,
    "label": "This is some rather long text, right?",
    "level": 0,
    "nodeAttributes": {},
    "children": [2, 3, 4]
  },
  {
    "id": 2,
    "label": "Lorem Ipsum",
    "level": 1,
    "nodeAttributes": {},
    "children": [5]
  },
  {
    "id": 3,
    "label": "We can do line\nbreaks, too",
    "level": 2,
    "nodeAttributes": {},
    "children": [5]
  },
  {
    "id": 4,
    "label": "Dolor sit amet",
    "level": 3,
    "nodeAttributes": {},
    "children": []
  },
  {
    "id": 5,
    "label": "The\nEnd",
    "level": 4,
    "nodeAttributes": {},
    "children": []
  }
]